C,S,k
1300,0.048,0.33
1182,0.048,0.33
1150,0.048,0.33
670,0.048,0.33
1250,0.048,0.33
1160,0.048,0.33
650,0.048,0.33
420,0.048,0.33
1080,0.048,0.33
970,0.048,0.33
430,0.048,0.33
960,0.048,0.33
1539,0.048,0.33
320,0.048,0.33
540,0.048,0.33
480,0.048,0.33
510,0.048,0.33
690,0.048,0.33
780,0.048,0.33
730,0.048,0.33
870,0.048,0.33
340,0.048,0.33
1430,0.048,0.33
1595,0.048,0.33
500,0.048,0.33
1830,0.048,0.33
2100,0.048,0.33
280,0.048,0.33
430,0.048,0.33
870,0.048,0.33
1360,0.048,0.33
1370,0.048,0.33
550,0.048,0.33
1185,0.048,0.33
354,0.048,0.33
940,0.048,0.33
1410,0.048,0.33
1730,0.048,0.33
1770,0.048,0.33
510,0.048,0.33
1253,0.048,0.33
1840,0.048,0.33
3860,0.048,0.33
1110,0.048,0.33
576,0.048,0.33
640,0.048,0.33
670,0.048,0.33
740,0.048,0.33
810,0.048,0.33
590,0.048,0.33
805,0.048,0.33
1250,0.048,0.33
3860,0.048,0.33
2529,0.048,0.33
2770,0.048,0.33
700,0.048,0.33
390,0.048,0.33
640,0.048,0.33
590,0.048,0.33
2715,0.048,0.33
2220,0.048,0.33
1990,0.048,0.33
1150,0.048,0.33
1160,0.048,0.33
690,0.048,0.33
555,0.048,0.33
0,0.048,0.33
0,0.048,0.33
0,0.048,0.33
0,0.048,0.33
0,0.048,0.33
0,0.048,0.33
0,0.048,0.33
0,0.048,0.33
0,0.048,0.33
0,0.048,0.33
0,0.048,0.33
0,0.048,0.33
0,0.048,0.33
0,0.048,0.33
0,0.048,0.33
0,0.048,0.33
0,0.048,0.33
0,0.048,0.33
0,0.048,0.33
0,0.048,0.33
0,0.048,0.33
0,0.048,0.33
0,0.048,0.33
0,0.048,0.33
0,0.048,0.33
0,0.048,0.33
0,0.048,0.33
0,0.048,0.33
0,0.048,0.33
0,0.048,0.33
0,0.048,0.33
0,0.048,0.33
0,0.048,0.33
0,0.048,0.33
0,0.048,0.33
0,0.048,0.33
0,0.048,0.33
0,0.048,0.33
0,0.048,0.33
0,0.048,0.33
0,0.048,0.33
0,0.048,0.33
0,0.048,0.33
0,0.048,0.33
0,0.048,0.33
0,0.048,0.33
0,0.048,0.33
0,0.048,0.33
0,0.048,0.33
0,0.048,0.33
0,0.048,0.33
