C,S,k
16200,0.0015,0.25
158,0.0015,0.25
37,0.0015,0.25
85,0.0015,0.25
6,0.0015,0.25
79,0.0015,0.25
240,0.0015,0.25
160,0.0015,0.25
27,0.0015,0.25
157,0.0015,0.25
126,0.0015,0.25
3,0.0015,0.25
92,0.0015,0.25
6,0.0015,0.25
47,0.0015,0.25
7017,0.0015,0.25
265,0.0015,0.25
532,0.0015,0.25
14,0.0015,0.25
323,0.0015,0.25
380,0.0015,0.25
700,0.0015,0.25
1500,0.0015,0.25
106,0.0015,0.25
2000,0.0015,0.25
15800,0.0015,0.25
12300,0.0015,0.25
7200,0.0015,0.25
200,0.0015,0.25
700,0.0015,0.25
406,0.0015,0.25
154,0.0015,0.25
100,0.0015,0.25
120,0.0015,0.25
600,0.0015,0.25
183,0.0015,0.25
100,0.0015,0.25
675,0.0015,0.25
318,0.0015,0.25
104,0.0015,0.25
7,0.0015,0.25
120,0.0015,0.25
216,0.0015,0.25
100,0.0015,0.25
400,0.0015,0.25
768,0.0015,0.25
34,0.0015,0.25
17,0.0015,0.25
13,0.0015,0.25
780,0.0015,0.25
17,0.0015,0.25
4,0.0015,0.25
395,0.0015,0.25
200,0.0015,0.25
2,0.0015,0.25
6,0.0015,0.25
2,0.0015,0.25
4,0.0015,0.25
22,0.0015,0.25
61,0.0015,0.25
27,0.0015,0.25
0,0.0015,0.25
0,0.0015,0.25
0,0.0015,0.25
0,0.0015,0.25
0,0.0015,0.25
0,0.0015,0.25
0,0.0015,0.25
0,0.0015,0.25
0,0.0015,0.25
0,0.0015,0.25
0,0.0015,0.25
0,0.0015,0.25
0,0.0015,0.25
0,0.0015,0.25
